1000×3 DataFrame
  Row │ winningsMultiplier  maxWinnings  integrand
      │ Float64             Float64      Float64
──────┼───────────────────────────────────────────────
    1 │          0.484901       78074.8    980.182
    2 │          0.335751       54488.1  18129.3
    3 │          0.816441       31568.0  56138.1
    4 │          0.443356       51583.9  32054.0
    5 │          0.443636       13150.3  16088.8
    6 │          0.123175       36199.0   6260.86
    7 │          0.0944916      88722.1      1.20884
    8 │          0.314851       16508.6  14644.9
  ⋮   │         ⋮                ⋮            ⋮
  994 │          0.928692       78391.9    458.815
  995 │          0.446397       11200.8  12162.7
  996 │          0.958467       32211.9  17653.1
  997 │          0.842134       76305.3   1389.45
  998 │          0.481993       56749.9  24489.5
  999 │          0.143741       91653.9      0.382243
 1000 │          0.885029       22297.2  30078.0
                                      985 rows omitted
