1000×3 DataFrame
  Row │ winningsMultiplier   maxWinnings  integrand
      │ Float64              Float64      Float64
──────┼───────────────────────────────────────────────
    1 │           0.90322        72134.6  0.0230392
    2 │           0.917368       51545.2  0.20419
    3 │           0.512024       16427.0  0.273655
    4 │           0.9973         15250.5  0.0050851
    5 │           0.277693       28754.6  0.241643
    6 │           0.545174       18977.3  0.361536
    7 │           0.80005        61191.1  0.172469
    8 │           0.984964       93986.3  3.63715e-7
  ⋮   │          ⋮                ⋮            ⋮
  994 │           0.558091       71935.2  0.0416468
  995 │           0.353317       59131.9  0.13333
  996 │           0.832761       13626.2  0.18131
  997 │           0.451363       88096.8  0.000234874
  998 │           0.582402       21358.5  0.447375
  999 │           0.585395       69332.4  0.0667747
 1000 │           0.995958       44345.1  0.0163444
                                      985 rows omitted
