Joint Distributions
…
From the above plot, we see that the largest contributors to \(\hat{I}\) are in a sweetspot of winning multipliers near 60% - 70% and maximum winnings of around $30,000 - $40,000.  These are the points that most contribute to moving the estimate of expected winnings away from zero.  Points above $50,000 in maximum winnings do not contribute as much because they are improbable events.  Additonally, the most probable of all the points, somewhere near 50% and $20,000, is not the largest contributor to the expectation. So it is not the largest points in terms of probability or in terms of total winnings (upper-right hand corner) that contribute the most to our expectation, rather points somewhere in between those extremes  contribute the largest summands.  

In code, our estimate of expected winnings turns out to be:

using Statistics
expectedWinnings = mean(gridDF.integrand)

15173.921953709367

Your calculation for expected winnings may be different than mine (i.e. due to inherent randomness in Monte Carlo integration).  However, asymptotically if we were to increase \(N\), then our numbers would converge; eventually or at least after infinite samples🤷 (see the Wikipedia article on Monte Carlo integration).  Here is how to see some of my randomly generated summand values - observe that highest maximum winnings does not mean largest contribution to the integrand due to the improbability of those events occurring.

gridDF

1000×3 DataFrame
  Row │ winningsMultiplier  maxWinnings  integrand
      │ Float64             Float64      Float64
──────┼───────────────────────────────────────────────
    1 │          0.484901       78074.8    980.182
    2 │          0.335751       54488.1  18129.3
    3 │          0.816441       31568.0  56138.1
    4 │          0.443356       51583.9  32054.0
    5 │          0.443636       13150.3  16088.8
    6 │          0.123175       36199.0   6260.86
    7 │          0.0944916      88722.1      1.20884
    8 │          0.314851       16508.6  14644.9
  ⋮   │         ⋮                ⋮            ⋮
  994 │          0.928692       78391.9    458.815
  995 │          0.446397       11200.8  12162.7
  996 │          0.958467       32211.9  17653.1
  997 │          0.842134       76305.3   1389.45
  998 │          0.481993       56749.9  24489.5
  999 │          0.143741       91653.9      0.382243
 1000 │          0.885029       22297.2  30078.0
                                      985 rows omitted
…
