1000×3 DataFrame
  Row │ winningsMultiplier  maxWinnings  integrand
      │ Float64             Float64      Float64
──────┼──────────────────────────────────────────────
    1 │          0.906716    82701.6     0.00158593
    2 │          0.25642      9794.46    0.042088
    3 │          0.625036    19968.0     0.42174
    4 │          0.284064    16550.1     0.125068
    5 │          0.905513    70713.3     0.0290402
    6 │          0.233465    10403.7     0.0402291
    7 │          0.798845    25064.6     0.491586
    8 │          0.175219    37189.3     0.1186
  ⋮   │         ⋮                ⋮            ⋮
  994 │          0.0711516   82474.3     0.000105044
  995 │          0.279691    56983.2     0.112481
  996 │          0.28455     60600.7     0.0829421
  997 │          0.792612    35261.5     0.613953
  998 │          0.581754    12029.0     0.177555
  999 │          0.903589    93880.2     2.20495e-6
 1000 │          0.256845    79789.2     0.00250615
                                     985 rows omitted
