6001×2 DataFrame
  Row │ winningsMultiplier  maxWinnings
      │ Float64             Float64
──────┼──────────────────────────────────
    1 │           0.55789       20121.0
    2 │           0.350313      25361.0
    3 │           0.368025      20110.5
    4 │           0.534217      20272.8
    5 │           0.541099      27406.4
    6 │           0.448786      31303.4
    7 │           0.598569      34623.1
    8 │           0.645882      35908.4
  ⋮   │         ⋮                ⋮
 5995 │           0.76571       25613.4
 5996 │           0.687493      31163.8
 5997 │           0.743776      40702.5
 5998 │           0.616735      47447.2
 5999 │           0.746507      41558.5
 6000 │           0.884031      49342.9
 6001 │           0.757329      54914.0
                        5986 rows omitted
