3001×2 DataFrame
  Row │ winningsMultiplier  maxWinnings
      │ Float64             Float64
──────┼─────────────────────────────────
    1 │           0.665722      48352.7
    2 │           0.665722      48352.7
    3 │           0.708042      46966.9
    4 │           0.657651      42850.8
    5 │           0.537396      38426.7
    6 │           0.566104      36911.7
    7 │           0.562456      45058.9
    8 │           0.526936      41212.6
  ⋮   │         ⋮                ⋮
 2995 │           0.323323      17385.5
 2996 │           0.520027      21666.6
 2997 │           0.689487      23433.8
 2998 │           0.542163      12513.3
 2999 │           0.35659       18082.4
 3000 │           0.178764      21674.7
 3001 │           0.178764      21674.7
                       2986 rows omitted
