Markov Chain Monte Carlo
…
Now, we add a function to sample more points in our chain and then gather 200 more points.

function qDFSamplingFun!(drawsDF::DataFrame)
    currentRow = nrow(drawsDF)  ## get last row as current pos.
    q_current = convert(Array,drawsDF[currentRow, :])
    q_proposed = jumpPoint(q_current)
    acceptanceProb = min(1, π_Q(q_proposed) / π_Q(q_current))
    addPoint!(drawsDF, q_proposed, acceptanceProb)
end

for i in 1:200
    qDFSamplingFun!(qDF)
end

202×2 DataFrame
 Row │ winningsMultiplier  maxWinnings
     │ Float64             Float64
─────┼─────────────────────────────────
   1 │           0.99          99000.0
   2 │           0.981466      98777.8
   3 │           0.981466      98777.8
   4 │           0.981466      98777.8
   5 │           0.935292      98697.1
   6 │           0.935292      98697.1
   7 │           0.958236      98373.3
   8 │           0.850042      98589.7
  ⋮  │         ⋮                ⋮
 196 │           0.407694      92439.7
 197 │           0.430753      91992.6
 198 │           0.474466      91881.7
 199 │           0.316536      91501.3
 200 │           0.482666      91639.2
 201 │           0.477057      91900.4
 202 │           0.484342      91777.7
                       187 rows omitted
…
Part of the reason we are not finding the sweetspot of probability - often called the typical set - is that our exploration of \(Y\) is limited by tiny jumps.  So let's now start fresh from the same starting point, increase our jump size for maximum winnings, and take more samples.

## start with new draws df and sample 41 addtl points
qBigJumpDF = DataFrame(winningsMultiplier = 0.99,
                maxWinnings = 99000.0)

# change max winnings std. dev to 5,000 from 200
jumpDist = MvNormal(zeros(2), Diagonal([0.1^2,5000^2]) ) 
# jumpDist is equivalent to xJump~N(0,0.1), yJump~N(0,5000)

for i in 1:4000
    qDFSamplingFun!(qBigJumpDF)
end

4001×2 DataFrame
  Row │ winningsMultiplier  maxWinnings
      │ Float64             Float64
──────┼─────────────────────────────────
    1 │           0.99          99000.0
    2 │           0.99          99000.0
    3 │           0.99          99000.0
    4 │           0.99          99000.0
    5 │           0.99          99000.0
    6 │           0.99          99000.0
    7 │           0.882821      91352.7
    8 │           0.882821      91352.7
  ⋮   │         ⋮                ⋮
 3995 │           0.323323      17385.5
 3996 │           0.520027      21666.6
 3997 │           0.689487      23433.8
 3998 │           0.542163      12513.3
 3999 │           0.35659       18082.4
 4000 │           0.178764      21674.7
 4001 │           0.178764      21674.7
                       3986 rows omitted
…
After 4,000 bigger jumps around, our sampler has unstuck itself from the low-probability density region of sample space.  

Get rid of the burn-in period

One intuition you might have is that the starting point of your sampling should not bias your results.  Think of the Markov chain as following a blood hound that visits points in proportion to their joint density magnitude.  If you start the blood hound's search in a region of very low density, then a disproportionate amount of time is spent sniffing points there.  To eliminate this bias, a burn-in period (say first 1,000 samples) is discarded and only the remaining samples are used.  You can see below that most maximum winnings samples above $50,000 get removed; we started above $50,000 and that is why there is an unrepresentatively high amount of samples from that area.

qNoBurnDF = qBigJumpDF[1001:end, :]

3001×2 DataFrame
  Row │ winningsMultiplier  maxWinnings
      │ Float64             Float64
──────┼─────────────────────────────────
    1 │           0.665722      48352.7
    2 │           0.665722      48352.7
    3 │           0.708042      46966.9
    4 │           0.657651      42850.8
    5 │           0.537396      38426.7
    6 │           0.566104      36911.7
    7 │           0.562456      45058.9
    8 │           0.526936      41212.6
  ⋮   │         ⋮                ⋮
 2995 │           0.323323      17385.5
 2996 │           0.520027      21666.6
 2997 │           0.689487      23433.8
 2998 │           0.542163      12513.3
 2999 │           0.35659       18082.4
 3000 │           0.178764      21674.7
 3001 │           0.178764      21674.7
                       2986 rows omitted
…
Thinning

One last strategy to employ is called thinning.  The points are correlated by design, but if we only peek at the chain every \(N^{th}\) point, then the correlation is less detectable and samples behave more independently.  Here we look at every third point.

qThinDF = qNoBurnDF[1001:3:end, :]

667×2 DataFrame
 Row │ winningsMultiplier  maxWinnings
     │ Float64             Float64
─────┼─────────────────────────────────
   1 │           0.458515     41730.5
   2 │           0.390475     40571.4
   3 │           0.36203      46586.8
   4 │           0.166007     39980.5
   5 │           0.134606     41365.6
   6 │           0.26761      43988.2
   7 │           0.419739     33814.9
   8 │           0.584573     12297.2
  ⋮  │         ⋮                ⋮
 661 │           0.170645      5414.74
 662 │           0.527311     25764.2
 663 │           0.298925     26574.1
 664 │           0.326721     18980.4
 665 │           0.426879     25226.4
 666 │           0.520027     21666.6
 667 │           0.35659      18082.4
                       652 rows omitted
…
Not quite the accuracy we were hoping for, but then again we only retained 667 samples.  Let's use alot more samples, say 20,000, remove the first 2,000 as burn-in, and then retain every third sample; a total of 6,000 samples

## better starting point
qDF = DataFrame(winningsMultiplier = 0.5,
                maxWinnings = 25000.0)

for i in 1:20000
    qDFSamplingFun!(qDF)
end

qDF = qDF[2001:end,:] ## get rid of burn-in
qDF = qDF[1:3:end,:]  ## retain every third sample

6001×2 DataFrame
  Row │ winningsMultiplier  maxWinnings
      │ Float64             Float64
──────┼──────────────────────────────────
    1 │           0.55789       20121.0
    2 │           0.350313      25361.0
    3 │           0.368025      20110.5
    4 │           0.534217      20272.8
    5 │           0.541099      27406.4
    6 │           0.448786      31303.4
    7 │           0.598569      34623.1
    8 │           0.645882      35908.4
  ⋮   │         ⋮                ⋮
 5995 │           0.76571       25613.4
 5996 │           0.687493      31163.8
 5997 │           0.743776      40702.5
 5998 │           0.616735      47447.2
 5999 │           0.746507      41558.5
 6000 │           0.884031      49342.9
 6001 │           0.757329      54914.0
                        5986 rows omitted
…
