Monte Carlo Integration
…
From the above plot, we see that the largest contributors to \(\hat{I}\) (i.e. high integrand points) are in a sweetspot of winning multipliers near 60% - 70% and maximum winnings of around $30,000 - $40,000.  These are the points that most contribute to moving the estimate of expected winnings away from zero.  Points above $50,000 in maximum winnings do not contribute as much because they are improbable events.  Additonally, the most probable of all the points, somewhere near 50% and $25,000, is not the largest contributor to the expectation. So it is not the largest points in terms of probability or in terms of total winnings (upper-right hand corner) that contribute the most to our expectation, rather points somewhere in between those extremes  contribute the largest summands.  

In code, our estimate of expected winnings turns out to be:

using Statistics
expectedWinnings = 10^5 * mean(gridDF.integrand) # est of I

16268.55140178935

Your calculation for expected winnings may be different than mine (i.e. due to inherent randomness in Monte Carlo integration).  However, asymptotically if we were to increase \(N\), then our numbers would converge; eventually or at least after infinite samples🤷 (see the Wikipedia article on Monte Carlo integration).  Here is how to see some of my randomly generated summand values - observe that highest maximum winnings does not mean largest contribution to the integrand due to the improbability of those events occurring.

gridDF

1000×3 DataFrame
  Row │ winningsMultiplier  maxWinnings  integrand
      │ Float64             Float64      Float64
──────┼──────────────────────────────────────────────
    1 │          0.484003       33964.2  0.56759
    2 │          0.878038       12419.3  0.124871
    3 │          0.418715       77169.6  0.0103208
    4 │          0.79049        20447.5  0.389683
    5 │          0.150185       85767.3  0.000122263
    6 │          0.11655        88752.6  1.76386e-5
    7 │          0.0360412      11095.6  0.00135696
    8 │          0.488839       90506.3  6.08035e-5
  ⋮   │         ⋮                ⋮            ⋮
  994 │          0.79884        49361.8  0.425147
  995 │          0.595547       95045.1  9.7953e-7
  996 │          0.359406       79623.1  0.00443208
  997 │          0.429094       23220.8  0.369138
  998 │          0.2511         37840.8  0.220034
  999 │          0.148598       44428.5  0.0764348
 1000 │          0.625866       46103.5  0.561405
                                     985 rows omitted
…
