667×2 DataFrame
 Row │ winningsMultiplier  maxWinnings
     │ Float64             Float64
─────┼─────────────────────────────────
   1 │           0.458515     41730.5
   2 │           0.390475     40571.4
   3 │           0.36203      46586.8
   4 │           0.166007     39980.5
   5 │           0.134606     41365.6
   6 │           0.26761      43988.2
   7 │           0.419739     33814.9
   8 │           0.584573     12297.2
  ⋮  │         ⋮                ⋮
 661 │           0.170645      5414.74
 662 │           0.527311     25764.2
 663 │           0.298925     26574.1
 664 │           0.326721     18980.4
 665 │           0.426879     25226.4
 666 │           0.520027     21666.6
 667 │           0.35659      18082.4
                       652 rows omitted
