202×2 DataFrame
 Row │ winningsMultiplier  maxWinnings
     │ Float64             Float64
─────┼─────────────────────────────────
   1 │           0.99          99000.0
   2 │           0.981466      98777.8
   3 │           0.981466      98777.8
   4 │           0.981466      98777.8
   5 │           0.935292      98697.1
   6 │           0.935292      98697.1
   7 │           0.958236      98373.3
   8 │           0.850042      98589.7
  ⋮  │         ⋮                ⋮
 196 │           0.407694      92439.7
 197 │           0.430753      91992.6
 198 │           0.474466      91881.7
 199 │           0.316536      91501.3
 200 │           0.482666      91639.2
 201 │           0.477057      91900.4
 202 │           0.484342      91777.7
                       187 rows omitted
