4001×2 DataFrame
  Row │ winningsMultiplier  maxWinnings
      │ Float64             Float64
──────┼─────────────────────────────────
    1 │           0.99          99000.0
    2 │           0.99          99000.0
    3 │           0.99          99000.0
    4 │           0.99          99000.0
    5 │           0.99          99000.0
    6 │           0.99          99000.0
    7 │           0.882821      91352.7
    8 │           0.882821      91352.7
  ⋮   │         ⋮                ⋮
 3995 │           0.323323      17385.5
 3996 │           0.520027      21666.6
 3997 │           0.689487      23433.8
 3998 │           0.542163      12513.3
 3999 │           0.35659       18082.4
 4000 │           0.178764      21674.7
 4001 │           0.178764      21674.7
                       3986 rows omitted
